{
    "presets": [
      "@babel/preset-env",
      "@babel/preset-react"
    ],
    "env": {
      "test": {
        "presets": [
          "@babel/preset-env",
          "@babel/preset-react"
        ],
        "plugins": [
          "@babel/plugin-syntax-dynamic-import"
        ]
      }
    },
    "plugins": [
      "@babel/plugin-syntax-dynamic-import"
    ]
  }